kriti.vcd
$date
	Sun May  1 01:26:16 2016
$end
$version
	ModelSim Version 10.3c
$end
$timescale
	1ns
$end

$scope module switch_tb $end
$var wire 1 ! rst $end
$var wire 1 " clk $end
$var wire 1 # rx [39] $end
$var wire 1 $ rx [38] $end
$var wire 1 % rx [37] $end
$var wire 1 & rx [36] $end
$var wire 1 ' rx [35] $end
$var wire 1 ( rx [34] $end
$var wire 1 ) rx [33] $end
$var wire 1 * rx [32] $end
$var wire 1 + rx [31] $end
$var wire 1 , rx [30] $end
$var wire 1 - rx [29] $end
$var wire 1 . rx [28] $end
$var wire 1 / rx [27] $end
$var wire 1 0 rx [26] $end
$var wire 1 1 rx [25] $end
$var wire 1 2 rx [24] $end
$var wire 1 3 rx [23] $end
$var wire 1 4 rx [22] $end
$var wire 1 5 rx [21] $end
$var wire 1 6 rx [20] $end
$var wire 1 7 rx [19] $end
$var wire 1 8 rx [18] $end
$var wire 1 9 rx [17] $end
$var wire 1 : rx [16] $end
$var wire 1 ; rx [15] $end
$var wire 1 < rx [14] $end
$var wire 1 = rx [13] $end
$var wire 1 > rx [12] $end
$var wire 1 ? rx [11] $end
$var wire 1 @ rx [10] $end
$var wire 1 A rx [9] $end
$var wire 1 B rx [8] $end
$var wire 1 C rx [7] $end
$var wire 1 D rx [6] $end
$var wire 1 E rx [5] $end
$var wire 1 F rx [4] $end
$var wire 1 G rx [3] $end
$var wire 1 H rx [2] $end
$var wire 1 I rx [1] $end
$var wire 1 J rx [0] $end
$var wire 1 K rx_valid [3] $end
$var wire 1 L rx_valid [2] $end
$var wire 1 M rx_valid [1] $end
$var wire 1 N rx_valid [0] $end
$var wire 1 O tx [39] $end
$var wire 1 P tx [38] $end
$var wire 1 Q tx [37] $end
$var wire 1 R tx [36] $end
$var wire 1 S tx [35] $end
$var wire 1 T tx [34] $end
$var wire 1 U tx [33] $end
$var wire 1 V tx [32] $end
$var wire 1 W tx [31] $end
$var wire 1 X tx [30] $end
$var wire 1 Y tx [29] $end
$var wire 1 Z tx [28] $end
$var wire 1 [ tx [27] $end
$var wire 1 \ tx [26] $end
$var wire 1 ] tx [25] $end
$var wire 1 ^ tx [24] $end
$var wire 1 _ tx [23] $end
$var wire 1 ` tx [22] $end
$var wire 1 a tx [21] $end
$var wire 1 b tx [20] $end
$var wire 1 c tx [19] $end
$var wire 1 d tx [18] $end
$var wire 1 e tx [17] $end
$var wire 1 f tx [16] $end
$var wire 1 g tx [15] $end
$var wire 1 h tx [14] $end
$var wire 1 i tx [13] $end
$var wire 1 j tx [12] $end
$var wire 1 k tx [11] $end
$var wire 1 l tx [10] $end
$var wire 1 m tx [9] $end
$var wire 1 n tx [8] $end
$var wire 1 o tx [7] $end
$var wire 1 p tx [6] $end
$var wire 1 q tx [5] $end
$var wire 1 r tx [4] $end
$var wire 1 s tx [3] $end
$var wire 1 t tx [2] $end
$var wire 1 u tx [1] $end
$var wire 1 v tx [0] $end
$var wire 1 w tx_valid [3] $end
$var wire 1 x tx_valid [2] $end
$var wire 1 y tx_valid [1] $end
$var wire 1 z tx_valid [0] $end
$var wire 1 { active_i [3] $end
$var wire 1 | active_i [2] $end
$var wire 1 } active_i [1] $end
$var wire 1 ~ active_i [0] $end
$var wire 1 !! active_ii [3] $end
$var wire 1 "! active_ii [2] $end
$var wire 1 #! active_ii [1] $end
$var wire 1 $! active_ii [0] $end
$var wire 1 %! socw_en $end
$var wire 1 &! socw_dis $end
$var wire 1 '! dat_nwrite [3] $end
$var wire 1 (! dat_nwrite [2] $end
$var wire 1 )! dat_nwrite [1] $end
$var wire 1 *! dat_nwrite [0] $end
$var wire 1 +! dat_din [35] $end
$var wire 1 ,! dat_din [34] $end
$var wire 1 -! dat_din [33] $end
$var wire 1 .! dat_din [32] $end
$var wire 1 /! dat_din [31] $end
$var wire 1 0! dat_din [30] $end
$var wire 1 1! dat_din [29] $end
$var wire 1 2! dat_din [28] $end
$var wire 1 3! dat_din [27] $end
$var wire 1 4! dat_din [26] $end
$var wire 1 5! dat_din [25] $end
$var wire 1 6! dat_din [24] $end
$var wire 1 7! dat_din [23] $end
$var wire 1 8! dat_din [22] $end
$var wire 1 9! dat_din [21] $end
$var wire 1 :! dat_din [20] $end
$var wire 1 ;! dat_din [19] $end
$var wire 1 <! dat_din [18] $end
$var wire 1 =! dat_din [17] $end
$var wire 1 >! dat_din [16] $end
$var wire 1 ?! dat_din [15] $end
$var wire 1 @! dat_din [14] $end
$var wire 1 A! dat_din [13] $end
$var wire 1 B! dat_din [12] $end
$var wire 1 C! dat_din [11] $end
$var wire 1 D! dat_din [10] $end
$var wire 1 E! dat_din [9] $end
$var wire 1 F! dat_din [8] $end
$var wire 1 G! dat_din [7] $end
$var wire 1 H! dat_din [6] $end
$var wire 1 I! dat_din [5] $end
$var wire 1 J! dat_din [4] $end
$var wire 1 K! dat_din [3] $end
$var wire 1 L! dat_din [2] $end
$var wire 1 M! dat_din [1] $end
$var wire 1 N! dat_din [0] $end
$var wire 1 O! dat_nread [3] $end
$var wire 1 P! dat_nread [2] $end
$var wire 1 Q! dat_nread [1] $end
$var wire 1 R! dat_nread [0] $end
$var wire 1 S! dat_empty [3] $end
$var wire 1 T! dat_empty [2] $end
$var wire 1 U! dat_empty [1] $end
$var wire 1 V! dat_empty [0] $end
$var wire 1 W! dat_nwrite_P0 $end
$var wire 1 X! dat_nwrite_P1 $end
$var wire 1 Y! dat_nwrite_P2 $end
$var wire 1 Z! dat_nwrite_P3 $end
$var wire 1 [! dat_din_P0 [8] $end
$var wire 1 \! dat_din_P0 [7] $end
$var wire 1 ]! dat_din_P0 [6] $end
$var wire 1 ^! dat_din_P0 [5] $end
$var wire 1 _! dat_din_P0 [4] $end
$var wire 1 `! dat_din_P0 [3] $end
$var wire 1 a! dat_din_P0 [2] $end
$var wire 1 b! dat_din_P0 [1] $end
$var wire 1 c! dat_din_P0 [0] $end
$var wire 1 d! dat_din_P1 [8] $end
$var wire 1 e! dat_din_P1 [7] $end
$var wire 1 f! dat_din_P1 [6] $end
$var wire 1 g! dat_din_P1 [5] $end
$var wire 1 h! dat_din_P1 [4] $end
$var wire 1 i! dat_din_P1 [3] $end
$var wire 1 j! dat_din_P1 [2] $end
$var wire 1 k! dat_din_P1 [1] $end
$var wire 1 l! dat_din_P1 [0] $end
$var wire 1 m! dat_din_P2 [8] $end
$var wire 1 n! dat_din_P2 [7] $end
$var wire 1 o! dat_din_P2 [6] $end
$var wire 1 p! dat_din_P2 [5] $end
$var wire 1 q! dat_din_P2 [4] $end
$var wire 1 r! dat_din_P2 [3] $end
$var wire 1 s! dat_din_P2 [2] $end
$var wire 1 t! dat_din_P2 [1] $end
$var wire 1 u! dat_din_P2 [0] $end
$var wire 1 v! dat_din_P3 [8] $end
$var wire 1 w! dat_din_P3 [7] $end
$var wire 1 x! dat_din_P3 [6] $end
$var wire 1 y! dat_din_P3 [5] $end
$var wire 1 z! dat_din_P3 [4] $end
$var wire 1 {! dat_din_P3 [3] $end
$var wire 1 |! dat_din_P3 [2] $end
$var wire 1 }! dat_din_P3 [1] $end
$var wire 1 ~! dat_din_P3 [0] $end
$upscope $end
$enddefinitions $end
#0
$dumpvars
1!
0"
1%!
0&!
1W!
1X!
1Y!
1Z!
x#
x$
x%
x&
x'
x(
x)
x*
x+
x,
x-
x.
x/
x0
x1
x2
x3
x4
x5
x6
x7
x8
x9
x:
x;
x<
x=
x>
x?
x@
xA
xB
xC
xD
xE
xF
xG
xH
xI
xJ
xK
xL
xM
xN
xO
xP
xQ
xR
xS
xT
xU
xV
xW
xX
xY
xZ
x[
x\
x]
x^
x_
x`
xa
xb
xc
xd
xe
xf
xg
xh
xi
xj
xk
xl
xm
xn
xo
xp
xq
xr
xs
xt
xu
xv
xw
xx
xy
xz
0!!
0"!
0#!
0$!
1'!
1(!
1)!
1*!
0+!
0,!
0-!
0.!
0/!
00!
01!
02!
03!
04!
05!
06!
07!
08!
09!
0:!
0;!
0<!
0=!
0>!
0?!
0@!
0A!
0B!
0C!
0D!
0E!
0F!
0G!
0H!
0I!
0J!
0K!
0L!
0M!
0N!
1O!
1P!
1Q!
1R!
xS!
xT!
xU!
xV!
0{
0|
0}
0~
0[!
0\!
0]!
0^!
0_!
0`!
0a!
0b!
0c!
0d!
0e!
0f!
0g!
0h!
0i!
0j!
0k!
0l!
0m!
0n!
0o!
0p!
0q!
0r!
0s!
0t!
0u!
0v!
0w!
0x!
0y!
0z!
0{!
0|!
0}!
0~!
$end
#5
1"
1X
0W
0V
0U
0T
0S
0R
0Q
0P
0O
0w
1S!
1b
0a
0`
0_
0^
0]
0\
0[
0Z
0Y
0x
1T!
1l
0k
0j
0i
0h
0g
0f
0e
0d
0c
0y
1U!
1v
0u
0t
0s
0r
0q
0p
0o
0n
0m
0z
1V!
1,
0+
0*
0)
0(
0'
0&
0%
0$
0#
0K
16
05
04
03
02
01
00
0/
0.
0-
0L
1@
0?
0>
0=
0<
0;
0:
09
08
07
0M
1J
0I
0H
0G
0F
0E
0D
0C
0B
0A
0N
#10
0"
#15
1"
#20
0"
#25
1"
#30
0"
#35
1"
#40
0"
#45
1"
#50
0"
#55
1"
#60
0"
#65
1"
#70
0"
#75
1"
#80
0"
#85
1"
#90
0"
#95
1"
#100
0"
0!
#105
1"
#110
0"
#115
1"
#120
0"
#125
1"
#130
0"
#135
1"
#140
0"
#145
1"
#150
0"
#155
1"
#160
0"
#165
1"
#170
0"
#175
1"
#180
0"
#185
1"
#190
0"
#195
1"
#200
0"
#205
1"
#210
0"
#215
1"
#220
0"
#225
1"
#230
0"
#235
1"
#240
0"
#245
1"
#250
0"
#255
1"
#260
0"
#265
1"
#270
0"
#275
1"
#280
0"
#285
1"
#290
0"
#295
1"
1w
1x
1y
1z
1K
1L
1M
1N
#300
0"
#305
1"
0X
1W
1V
1U
1S
0b
1a
1`
1_
1]
0l
1k
1j
1i
1g
0v
1u
1t
1s
1q
0,
1+
1*
1)
1'
06
15
14
13
11
0@
1?
1>
1=
1;
0J
1I
1H
1G
1E
#310
0"
#315
1"
1X
1b
1l
1v
1,
16
1@
1J
#320
0"
#325
1"
#330
0"
#335
1"
0V
0U
0S
0`
0_
0]
0j
0i
0g
0t
0s
0q
0*
0)
0'
04
03
01
0>
0=
0;
0H
0G
0E
#340
0"
#345
1"
0X
1V
1U
1S
0b
1`
1_
1]
0l
1j
1i
1g
0v
1t
1s
1q
0,
1*
1)
1'
06
14
13
11
0@
1>
1=
1;
0J
1H
1G
1E
#350
0"
#355
1"
1X
0V
0U
0S
1!!
1b
0`
0_
0]
1"!
1l
0j
0i
0g
1#!
1v
0t
0s
0q
1$!
1,
0*
0)
0'
16
04
03
01
1@
0>
0=
0;
1J
0H
0G
0E
1~
1}
1|
1{
#360
0"
#365
1"
0X
1V
1U
1S
0b
1`
1_
1]
0l
1j
1i
1g
0v
1t
1s
1q
0,
1*
1)
1'
06
14
13
11
0@
1>
1=
1;
0J
1H
1G
1E
#370
0"
#375
1"
1X
0V
0U
0S
1b
0`
0_
0]
1l
0j
0i
0g
1v
0t
0s
0q
1,
0*
0)
0'
16
04
03
01
1@
0>
0=
0;
1J
0H
0G
0E
#380
0"
#385
1"
0X
1V
1U
1S
0b
1`
1_
1]
0l
1j
1i
1g
0v
1t
1s
1q
0,
1*
1)
1'
06
14
13
11
0@
1>
1=
1;
0J
1H
1G
1E
#390
0"
#395
1"
1X
0V
0U
0S
1b
0`
0_
0]
1l
0j
0i
0g
1v
0t
0s
0q
1,
0*
0)
0'
16
04
03
01
1@
0>
0=
0;
1J
0H
0G
0E
#400
0"
#405
1"
0X
1V
1U
1S
0b
1`
1_
1]
0l
1j
1i
1g
0v
1t
1s
1q
0,
1*
1)
1'
06
14
13
11
0@
1>
1=
1;
0J
1H
1G
1E
#410
0"
#415
1"
1X
0V
0U
0S
1b
0`
0_
0]
1l
0j
0i
0g
1v
0t
0s
0q
1,
0*
0)
0'
16
04
03
01
1@
0>
0=
0;
1J
0H
0G
0E
#420
0"
#425
1"
0X
1V
1U
1S
0b
1`
1_
1]
0l
1j
1i
1g
0v
1t
1s
1q
0,
1*
1)
1'
06
14
13
11
0@
1>
1=
1;
0J
1H
1G
1E
#430
0"
#435
1"
1X
0V
0U
0S
1b
0`
0_
0]
1l
0j
0i
0g
1v
0t
0s
0q
1,
0*
0)
0'
16
04
03
01
1@
0>
0=
0;
1J
0H
0G
0E
#440
0"
#445
1"
0X
1V
1U
1S
0b
1`
1_
1]
0l
1j
1i
1g
0v
1t
1s
1q
0,
1*
1)
1'
06
14
13
11
0@
1>
1=
1;
0J
1H
1G
1E
#450
0"
#455
1"
1X
0V
0U
0S
1b
0`
0_
0]
1l
0j
0i
0g
1v
0t
0s
0q
1,
0*
0)
0'
16
04
03
01
1@
0>
0=
0;
1J
0H
0G
0E
#460
0"
#465
1"
0X
1V
1U
1S
0b
1`
1_
1]
0l
1j
1i
1g
0v
1t
1s
1q
0,
1*
1)
1'
06
14
13
11
0@
1>
1=
1;
0J
1H
1G
1E
#470
0"
#475
1"
1X
1b
1l
1v
1,
16
1@
1J
