test.vcd
$date
	Sun May  1 01:26:16 2016
$end
$version
	ModelSim Version 10.3c
$end
$timescale
	1ns
$end
$scope module logic $end
$var wire 1 " data $end
$upscope $end
$enddefinitions $end
#0
$dumpvars
0"
$end
#5
1"
#10
0"
#15
1"
#20
0"
#25
1"
#30
x"
#35
1"
#30
0"
#35
0"
#30
x"
#35
x"
#30
0"
